%!PS-Adobe-2.0 EPSF-2.0
%%Creator: user
%%Title: FreeFem++
%%CreationDate: Tue Sep 12 16:54:26 2017
%%Pages: 1
%%BoundingBox:       0 0 596 421
%%EndComments
 /L {newpath moveto lineto stroke} def
 /C {setrgbcolor} def
 /rec {newpath 4 copy 8 1 roll moveto 3 -1 roll lineto 4 2 roll exch lineto lineto closepath} def
 0.059600 0.059600  scale 
 0 10000 0 7071 rec clip
 /Helvetica findfont 151 scalefont setfont
 /S {moveto show} def
 /bF  { mark} def 
 /eF {newpath moveto counttomark 2 idiv {lineto} repeat closepath fill cleartomark} def
 /P { /yy exch def /xx exch def   xx xx 1 add yy yy 1 add  rec  fill } def
 2 setlinewidth
0.000 0.000 0.000 C
1785 3460 2408 3442 L
2408 3442 2411 3507 L
2411 3507 1785 3460 L
1785 3460 2411 3507 L
2411 3507 1785 3524 L
1785 3524 1785 3460 L
2408 3442 3033 3399 L
3033 3399 3038 3463 L
3038 3463 2408 3442 L
2408 3442 3038 3463 L
3038 3463 2411 3507 L
2411 3507 2408 3442 L
3033 3399 3661 3335 L
3661 3335 3668 3399 L
3668 3399 3033 3399 L
3033 3399 3668 3399 L
3668 3399 3038 3463 L
3038 3463 3033 3399 L
3661 3335 4291 3254 L
4291 3254 4300 3317 L
4300 3317 3661 3335 L
3661 3335 4300 3317 L
4300 3317 3668 3399 L
3668 3399 3661 3335 L
4291 3254 4923 3161 L
4923 3161 4933 3224 L
4933 3224 4291 3254 L
4291 3254 4933 3224 L
4933 3224 4300 3317 L
4300 3317 4291 3254 L
4923 3161 5557 3059 L
5557 3059 5568 3123 L
5568 3123 4923 3161 L
4923 3161 5568 3123 L
5568 3123 4933 3224 L
4933 3224 4923 3161 L
5557 3059 6192 2953 L
6192 2953 6203 3016 L
6203 3016 5557 3059 L
5557 3059 6203 3016 L
6203 3016 5568 3123 L
5568 3123 5557 3059 L
6192 2953 6829 2843 L
6829 2843 6840 2907 L
6840 2907 6192 2953 L
6192 2953 6840 2907 L
6840 2907 6203 3016 L
6203 3016 6192 2953 L
6829 2843 7465 2732 L
7465 2732 7477 2796 L
7477 2796 6829 2843 L
6829 2843 7477 2796 L
7477 2796 6840 2907 L
6840 2907 6829 2843 L
7465 2732 8103 2621 L
8103 2621 8114 2685 L
8114 2685 7465 2732 L
7465 2732 8114 2685 L
8114 2685 7477 2796 L
7477 2796 7465 2732 L
1785 3524 2411 3507 L
2411 3507 2414 3571 L
2414 3571 1785 3524 L
1785 3524 2414 3571 L
2414 3571 1785 3587 L
1785 3587 1785 3524 L
2411 3507 3038 3463 L
3038 3463 3044 3527 L
3044 3527 2411 3507 L
2411 3507 3044 3527 L
3044 3527 2414 3571 L
2414 3571 2411 3507 L
3038 3463 3668 3399 L
3668 3399 3675 3462 L
3675 3462 3038 3463 L
3038 3463 3675 3462 L
3675 3462 3044 3527 L
3044 3527 3038 3463 L
3668 3399 4300 3317 L
4300 3317 4308 3381 L
4308 3381 3668 3399 L
3668 3399 4308 3381 L
4308 3381 3675 3462 L
3675 3462 3668 3399 L
4300 3317 4933 3224 L
4933 3224 4943 3288 L
4943 3288 4300 3317 L
4300 3317 4943 3288 L
4943 3288 4308 3381 L
4308 3381 4300 3317 L
4933 3224 5568 3123 L
5568 3123 5578 3187 L
5578 3187 4933 3224 L
4933 3224 5578 3187 L
5578 3187 4943 3288 L
4943 3288 4933 3224 L
5568 3123 6203 3016 L
6203 3016 6214 3080 L
6214 3080 5568 3123 L
5568 3123 6214 3080 L
6214 3080 5578 3187 L
5578 3187 5568 3123 L
6203 3016 6840 2907 L
6840 2907 6851 2971 L
6851 2971 6203 3016 L
6203 3016 6851 2971 L
6851 2971 6214 3080 L
6214 3080 6203 3016 L
6840 2907 7477 2796 L
7477 2796 7488 2860 L
7488 2860 6840 2907 L
6840 2907 7488 2860 L
7488 2860 6851 2971 L
6851 2971 6840 2907 L
7477 2796 8114 2685 L
8114 2685 8125 2749 L
8125 2749 7477 2796 L
7477 2796 8125 2749 L
8125 2749 7488 2860 L
7488 2860 7477 2796 L
1785 3587 2414 3571 L
2414 3571 2417 3635 L
2417 3635 1785 3587 L
1785 3587 2417 3635 L
2417 3635 1785 3651 L
1785 3651 1785 3587 L
2414 3571 3044 3527 L
3044 3527 3049 3591 L
3049 3591 2414 3571 L
2414 3571 3049 3591 L
3049 3591 2417 3635 L
2417 3635 2414 3571 L
3044 3527 3675 3462 L
3675 3462 3683 3526 L
3683 3526 3044 3527 L
3044 3527 3683 3526 L
3683 3526 3049 3591 L
3049 3591 3044 3527 L
3675 3462 4308 3381 L
4308 3381 4317 3445 L
4317 3445 3675 3462 L
3675 3462 4317 3445 L
4317 3445 3683 3526 L
3683 3526 3675 3462 L
4308 3381 4943 3288 L
4943 3288 4952 3352 L
4952 3352 4308 3381 L
4308 3381 4952 3352 L
4952 3352 4317 3445 L
4317 3445 4308 3381 L
4943 3288 5578 3187 L
5578 3187 5588 3251 L
5588 3251 4943 3288 L
4943 3288 5588 3251 L
5588 3251 4952 3352 L
4952 3352 4943 3288 L
5578 3187 6214 3080 L
6214 3080 6225 3144 L
6225 3144 5578 3187 L
5578 3187 6225 3144 L
6225 3144 5588 3251 L
5588 3251 5578 3187 L
6214 3080 6851 2971 L
6851 2971 6862 3034 L
6862 3034 6214 3080 L
6214 3080 6862 3034 L
6862 3034 6225 3144 L
6225 3144 6214 3080 L
6851 2971 7488 2860 L
7488 2860 7499 2924 L
7499 2924 6851 2971 L
6851 2971 7499 2924 L
7499 2924 6862 3034 L
6862 3034 6851 2971 L
7488 2860 8125 2749 L
8125 2749 8136 2813 L
8136 2813 7488 2860 L
7488 2860 8136 2813 L
8136 2813 7499 2924 L
7499 2924 7488 2860 L
1785 3651 2417 3635 L
2417 3635 2420 3699 L
2420 3699 1785 3651 L
1785 3651 2420 3699 L
2420 3699 1785 3715 L
1785 3715 1785 3651 L
2417 3635 3049 3591 L
3049 3591 3055 3655 L
3055 3655 2417 3635 L
2417 3635 3055 3655 L
3055 3655 2420 3699 L
2420 3699 2417 3635 L
3049 3591 3683 3526 L
3683 3526 3690 3590 L
3690 3590 3049 3591 L
3049 3591 3690 3590 L
3690 3590 3055 3655 L
3055 3655 3049 3591 L
3683 3526 4317 3445 L
4317 3445 4326 3509 L
4326 3509 3683 3526 L
3683 3526 4326 3509 L
4326 3509 3690 3590 L
3690 3590 3683 3526 L
4317 3445 4952 3352 L
4952 3352 4962 3416 L
4962 3416 4317 3445 L
4317 3445 4962 3416 L
4962 3416 4326 3509 L
4326 3509 4317 3445 L
4952 3352 5588 3251 L
5588 3251 5599 3314 L
5599 3314 4952 3352 L
4952 3352 5599 3314 L
5599 3314 4962 3416 L
4962 3416 4952 3352 L
5588 3251 6225 3144 L
6225 3144 6236 3208 L
6236 3208 5588 3251 L
5588 3251 6236 3208 L
6236 3208 5599 3314 L
5599 3314 5588 3251 L
6225 3144 6862 3034 L
6862 3034 6873 3098 L
6873 3098 6225 3144 L
6225 3144 6873 3098 L
6873 3098 6236 3208 L
6236 3208 6225 3144 L
6862 3034 7499 2924 L
7499 2924 7510 2987 L
7510 2987 6862 3034 L
6862 3034 7510 2987 L
7510 2987 6873 3098 L
6873 3098 6862 3034 L
7499 2924 8136 2813 L
8136 2813 8147 2876 L
8147 2876 7499 2924 L
7499 2924 8147 2876 L
8147 2876 7510 2987 L
7510 2987 7499 2924 L
1785 3715 2420 3699 L
2420 3699 2423 3762 L
2423 3762 1785 3715 L
1785 3715 2423 3762 L
2423 3762 1785 3778 L
1785 3778 1785 3715 L
2420 3699 3055 3655 L
3055 3655 3060 3719 L
3060 3719 2420 3699 L
2420 3699 3060 3719 L
3060 3719 2423 3762 L
2423 3762 2420 3699 L
3055 3655 3690 3590 L
3690 3590 3697 3654 L
3697 3654 3055 3655 L
3055 3655 3697 3654 L
3697 3654 3060 3719 L
3060 3719 3055 3655 L
3690 3590 4326 3509 L
4326 3509 4334 3573 L
4334 3573 3690 3590 L
3690 3590 4334 3573 L
4334 3573 3697 3654 L
3697 3654 3690 3590 L
4326 3509 4962 3416 L
4962 3416 4972 3480 L
4972 3480 4326 3509 L
4326 3509 4972 3480 L
4972 3480 4334 3573 L
4334 3573 4326 3509 L
4962 3416 5599 3314 L
5599 3314 5609 3378 L
5609 3378 4962 3416 L
4962 3416 5609 3378 L
5609 3378 4972 3480 L
4972 3480 4962 3416 L
5599 3314 6236 3208 L
6236 3208 6246 3271 L
6246 3271 5599 3314 L
5599 3314 6246 3271 L
6246 3271 5609 3378 L
5609 3378 5599 3314 L
6236 3208 6873 3098 L
6873 3098 6884 3162 L
6884 3162 6236 3208 L
6236 3208 6884 3162 L
6884 3162 6246 3271 L
6246 3271 6236 3208 L
6873 3098 7510 2987 L
7510 2987 7521 3051 L
7521 3051 6873 3098 L
6873 3098 7521 3051 L
7521 3051 6884 3162 L
6884 3162 6873 3098 L
7510 2987 8147 2876 L
8147 2876 8158 2940 L
8158 2940 7510 2987 L
7510 2987 8158 2940 L
8158 2940 7521 3051 L
7521 3051 7510 2987 L
1785 3778 2423 3762 L
2423 3762 2426 3826 L
2426 3826 1785 3778 L
1785 3778 2426 3826 L
2426 3826 1785 3842 L
1785 3842 1785 3778 L
2423 3762 3060 3719 L
3060 3719 3065 3783 L
3065 3783 2423 3762 L
2423 3762 3065 3783 L
3065 3783 2426 3826 L
2426 3826 2423 3762 L
3060 3719 3697 3654 L
3697 3654 3704 3718 L
3704 3718 3060 3719 L
3060 3719 3704 3718 L
3704 3718 3065 3783 L
3065 3783 3060 3719 L
3697 3654 4334 3573 L
4334 3573 4343 3636 L
4343 3636 3697 3654 L
3697 3654 4343 3636 L
4343 3636 3704 3718 L
3704 3718 3697 3654 L
4334 3573 4972 3480 L
4972 3480 4981 3543 L
4981 3543 4334 3573 L
4334 3573 4981 3543 L
4981 3543 4343 3636 L
4343 3636 4334 3573 L
4972 3480 5609 3378 L
5609 3378 5619 3442 L
5619 3442 4972 3480 L
4972 3480 5619 3442 L
5619 3442 4981 3543 L
4981 3543 4972 3480 L
5609 3378 6246 3271 L
6246 3271 6257 3335 L
6257 3335 5609 3378 L
5609 3378 6257 3335 L
6257 3335 5619 3442 L
5619 3442 5609 3378 L
6246 3271 6884 3162 L
6884 3162 6895 3226 L
6895 3226 6246 3271 L
6246 3271 6895 3226 L
6895 3226 6257 3335 L
6257 3335 6246 3271 L
6884 3162 7521 3051 L
7521 3051 7532 3115 L
7532 3115 6884 3162 L
6884 3162 7532 3115 L
7532 3115 6895 3226 L
6895 3226 6884 3162 L
7521 3051 8158 2940 L
8158 2940 8169 3004 L
8169 3004 7521 3051 L
7521 3051 8169 3004 L
8169 3004 7532 3115 L
7532 3115 7521 3051 L
1785 3842 2426 3826 L
2426 3826 2428 3890 L
2428 3890 1785 3842 L
1785 3842 2428 3890 L
2428 3890 1785 3906 L
1785 3906 1785 3842 L
2426 3826 3065 3783 L
3065 3783 3071 3846 L
3071 3846 2426 3826 L
2426 3826 3071 3846 L
3071 3846 2428 3890 L
2428 3890 2426 3826 L
3065 3783 3704 3718 L
3704 3718 3712 3781 L
3712 3781 3065 3783 L
3065 3783 3712 3781 L
3712 3781 3071 3846 L
3071 3846 3065 3783 L
3704 3718 4343 3636 L
4343 3636 4352 3700 L
4352 3700 3704 3718 L
3704 3718 4352 3700 L
4352 3700 3712 3781 L
3712 3781 3704 3718 L
4343 3636 4981 3543 L
4981 3543 4991 3607 L
4991 3607 4343 3636 L
4343 3636 4991 3607 L
4991 3607 4352 3700 L
4352 3700 4343 3636 L
4981 3543 5619 3442 L
5619 3442 5630 3506 L
5630 3506 4981 3543 L
4981 3543 5630 3506 L
5630 3506 4991 3607 L
4991 3607 4981 3543 L
5619 3442 6257 3335 L
6257 3335 6268 3399 L
6268 3399 5619 3442 L
5619 3442 6268 3399 L
6268 3399 5630 3506 L
5630 3506 5619 3442 L
6257 3335 6895 3226 L
6895 3226 6906 3289 L
6906 3289 6257 3335 L
6257 3335 6906 3289 L
6906 3289 6268 3399 L
6268 3399 6257 3335 L
6895 3226 7532 3115 L
7532 3115 7543 3178 L
7543 3178 6895 3226 L
6895 3226 7543 3178 L
7543 3178 6906 3289 L
6906 3289 6895 3226 L
7532 3115 8169 3004 L
8169 3004 8180 3067 L
8180 3067 7532 3115 L
7532 3115 8180 3067 L
8180 3067 7543 3178 L
7543 3178 7532 3115 L
1785 3906 2428 3890 L
2428 3890 2431 3953 L
2431 3953 1785 3906 L
1785 3906 2431 3953 L
2431 3953 1785 3970 L
1785 3970 1785 3906 L
2428 3890 3071 3846 L
3071 3846 3076 3910 L
3076 3910 2428 3890 L
2428 3890 3076 3910 L
3076 3910 2431 3953 L
2431 3953 2428 3890 L
3071 3846 3712 3781 L
3712 3781 3719 3845 L
3719 3845 3071 3846 L
3071 3846 3719 3845 L
3719 3845 3076 3910 L
3076 3910 3071 3846 L
3712 3781 4352 3700 L
4352 3700 4360 3764 L
4360 3764 3712 3781 L
3712 3781 4360 3764 L
4360 3764 3719 3845 L
3719 3845 3712 3781 L
4352 3700 4991 3607 L
4991 3607 5001 3671 L
5001 3671 4352 3700 L
4352 3700 5001 3671 L
5001 3671 4360 3764 L
4360 3764 4352 3700 L
4991 3607 5630 3506 L
5630 3506 5640 3569 L
5640 3569 4991 3607 L
4991 3607 5640 3569 L
5640 3569 5001 3671 L
5001 3671 4991 3607 L
5630 3506 6268 3399 L
6268 3399 6279 3463 L
6279 3463 5630 3506 L
5630 3506 6279 3463 L
6279 3463 5640 3569 L
5640 3569 5630 3506 L
6268 3399 6906 3289 L
6906 3289 6917 3353 L
6917 3353 6268 3399 L
6268 3399 6917 3353 L
6917 3353 6279 3463 L
6279 3463 6268 3399 L
6906 3289 7543 3178 L
7543 3178 7554 3242 L
7554 3242 6906 3289 L
6906 3289 7554 3242 L
7554 3242 6917 3353 L
6917 3353 6906 3289 L
7543 3178 8180 3067 L
8180 3067 8191 3131 L
8191 3131 7543 3178 L
7543 3178 8191 3131 L
8191 3131 7554 3242 L
7554 3242 7543 3178 L
1785 3970 2431 3953 L
2431 3953 2434 4016 L
2434 4016 1785 3970 L
1785 3970 2434 4016 L
2434 4016 1785 4033 L
1785 4033 1785 3970 L
2431 3953 3076 3910 L
3076 3910 3081 3973 L
3081 3973 2431 3953 L
2431 3953 3081 3973 L
3081 3973 2434 4016 L
2434 4016 2431 3953 L
3076 3910 3719 3845 L
3719 3845 3726 3908 L
3726 3908 3076 3910 L
3076 3910 3726 3908 L
3726 3908 3081 3973 L
3081 3973 3076 3910 L
3719 3845 4360 3764 L
4360 3764 4369 3827 L
4369 3827 3719 3845 L
3719 3845 4369 3827 L
4369 3827 3726 3908 L
3726 3908 3719 3845 L
4360 3764 5001 3671 L
5001 3671 5011 3734 L
5011 3734 4360 3764 L
4360 3764 5011 3734 L
5011 3734 4369 3827 L
4369 3827 4360 3764 L
5001 3671 5640 3569 L
5640 3569 5651 3633 L
5651 3633 5001 3671 L
5001 3671 5651 3633 L
5651 3633 5011 3734 L
5011 3734 5001 3671 L
5640 3569 6279 3463 L
6279 3463 6289 3526 L
6289 3526 5640 3569 L
5640 3569 6289 3526 L
6289 3526 5651 3633 L
5651 3633 5640 3569 L
6279 3463 6917 3353 L
6917 3353 6928 3417 L
6928 3417 6279 3463 L
6279 3463 6928 3417 L
6928 3417 6289 3526 L
6289 3526 6279 3463 L
6917 3353 7554 3242 L
7554 3242 7565 3306 L
7565 3306 6917 3353 L
6917 3353 7565 3306 L
7565 3306 6928 3417 L
6928 3417 6917 3353 L
7554 3242 8191 3131 L
8191 3131 8202 3195 L
8202 3195 7554 3242 L
7554 3242 8202 3195 L
8202 3195 7565 3306 L
7565 3306 7554 3242 L
1785 4033 2434 4016 L
2434 4016 2437 4080 L
2437 4080 1785 4033 L
1785 4033 2437 4080 L
2437 4080 1785 4097 L
1785 4097 1785 4033 L
2434 4016 3081 3973 L
3081 3973 3087 4036 L
3087 4036 2434 4016 L
2434 4016 3087 4036 L
3087 4036 2437 4080 L
2437 4080 2434 4016 L
3081 3973 3726 3908 L
3726 3908 3734 3972 L
3734 3972 3081 3973 L
3081 3973 3734 3972 L
3734 3972 3087 4036 L
3087 4036 3081 3973 L
3726 3908 4369 3827 L
4369 3827 4378 3891 L
4378 3891 3726 3908 L
3726 3908 4378 3891 L
4378 3891 3734 3972 L
3734 3972 3726 3908 L
4369 3827 5011 3734 L
5011 3734 5020 3798 L
5020 3798 4369 3827 L
4369 3827 5020 3798 L
5020 3798 4378 3891 L
4378 3891 4369 3827 L
5011 3734 5651 3633 L
5651 3633 5661 3696 L
5661 3696 5011 3734 L
5011 3734 5661 3696 L
5661 3696 5020 3798 L
5020 3798 5011 3734 L
5651 3633 6289 3526 L
6289 3526 6300 3590 L
6300 3590 5651 3633 L
5651 3633 6300 3590 L
6300 3590 5661 3696 L
5661 3696 5651 3633 L
6289 3526 6928 3417 L
6928 3417 6939 3480 L
6939 3480 6289 3526 L
6289 3526 6939 3480 L
6939 3480 6300 3590 L
6300 3590 6289 3526 L
6928 3417 7565 3306 L
7565 3306 7576 3370 L
7576 3370 6928 3417 L
6928 3417 7576 3370 L
7576 3370 6939 3480 L
6939 3480 6928 3417 L
7565 3306 8202 3195 L
8202 3195 8214 3259 L
8214 3259 7565 3306 L
7565 3306 8214 3259 L
8214 3259 7576 3370 L
7576 3370 7565 3306 L
4 setlinewidth
6 setlinewidth
1.000 0.488 0.488 C
1.000 0.744 0.244 C
1785 3460 2408 3442 L
1.000 0.488 0.488 C
1.000 0.744 0.244 C
2408 3442 3033 3399 L
1.000 0.488 0.488 C
1.000 0.744 0.244 C
3033 3399 3661 3335 L
1.000 0.488 0.488 C
1.000 0.744 0.244 C
3661 3335 4291 3254 L
1.000 0.488 0.488 C
1.000 0.744 0.244 C
4291 3254 4923 3161 L
1.000 0.488 0.488 C
1.000 0.744 0.244 C
4923 3161 5557 3059 L
1.000 0.488 0.488 C
1.000 0.744 0.244 C
5557 3059 6192 2953 L
1.000 0.488 0.488 C
1.000 0.744 0.244 C
6192 2953 6829 2843 L
1.000 0.488 0.488 C
1.000 0.744 0.244 C
6829 2843 7465 2732 L
1.000 0.488 0.488 C
1.000 0.744 0.244 C
7465 2732 8103 2621 L
1.000 1.000 0.000 C
8103 2621 8114 2685 L
1.000 0.744 0.244 C
1.000 1.000 0.000 C
8114 2685 8125 2749 L
1.000 0.744 0.244 C
1.000 1.000 0.000 C
8125 2749 8136 2813 L
1.000 0.744 0.244 C
1.000 1.000 0.000 C
8136 2813 8147 2876 L
1.000 0.744 0.244 C
1.000 1.000 0.000 C
8147 2876 8158 2940 L
1.000 0.744 0.244 C
1.000 1.000 0.000 C
8158 2940 8169 3004 L
1.000 0.744 0.244 C
1.000 1.000 0.000 C
8169 3004 8180 3067 L
1.000 0.744 0.244 C
1.000 1.000 0.000 C
8180 3067 8191 3131 L
1.000 0.744 0.244 C
1.000 1.000 0.000 C
8191 3131 8202 3195 L
1.000 0.744 0.244 C
1.000 1.000 0.000 C
8202 3195 8214 3259 L
0.500 1.000 0.000 C
1785 4097 2437 4080 L
1.000 1.000 0.000 C
0.500 1.000 0.000 C
2437 4080 3087 4036 L
1.000 1.000 0.000 C
0.500 1.000 0.000 C
3087 4036 3734 3972 L
1.000 1.000 0.000 C
0.500 1.000 0.000 C
3734 3972 4378 3891 L
1.000 1.000 0.000 C
0.500 1.000 0.000 C
4378 3891 5020 3798 L
1.000 1.000 0.000 C
0.500 1.000 0.000 C
5020 3798 5661 3696 L
1.000 1.000 0.000 C
0.500 1.000 0.000 C
5661 3696 6300 3590 L
1.000 1.000 0.000 C
0.500 1.000 0.000 C
6300 3590 6939 3480 L
1.000 1.000 0.000 C
0.500 1.000 0.000 C
6939 3480 7576 3370 L
1.000 1.000 0.000 C
0.500 1.000 0.000 C
7576 3370 8214 3259 L
0.000 1.000 0.000 C
1785 3460 1785 3524 L
0.500 1.000 0.000 C
0.000 1.000 0.000 C
1785 3524 1785 3587 L
0.500 1.000 0.000 C
0.000 1.000 0.000 C
1785 3587 1785 3651 L
0.500 1.000 0.000 C
0.000 1.000 0.000 C
1785 3651 1785 3715 L
0.500 1.000 0.000 C
0.000 1.000 0.000 C
1785 3715 1785 3778 L
0.500 1.000 0.000 C
0.000 1.000 0.000 C
1785 3778 1785 3842 L
0.500 1.000 0.000 C
0.000 1.000 0.000 C
1785 3842 1785 3906 L
0.500 1.000 0.000 C
0.000 1.000 0.000 C
1785 3906 1785 3970 L
0.500 1.000 0.000 C
0.000 1.000 0.000 C
1785 3970 1785 4033 L
0.500 1.000 0.000 C
0.000 1.000 0.000 C
1785 4033 1785 4097 L
1785 3460 1776 3451 L
2408 3442 2407 3430 L
3033 3399 3032 3387 L
3661 3335 3659 3322 L
4291 3254 4289 3241 L
4923 3161 4921 3148 L
5557 3059 5555 3047 L
6192 2953 6190 2940 L
6829 2843 6826 2831 L
7465 2732 7463 2720 L
8103 2621 8110 2611 L
1785 3524 1773 3524 L
8114 2685 8126 2683 L
1785 3587 1773 3587 L
8125 2749 8137 2747 L
1785 3651 1773 3651 L
8136 2813 8148 2810 L
1785 3715 1773 3715 L
8147 2876 8160 2874 L
1785 3778 1773 3778 L
8158 2940 8171 2938 L
1785 3842 1773 3842 L
8169 3004 8182 3002 L
1785 3906 1773 3906 L
8180 3067 8193 3065 L
1785 3970 1773 3970 L
8191 3131 8204 3129 L
1785 4033 1773 4033 L
8202 3195 8215 3193 L
1785 4097 1777 4106 L
2437 4080 2438 4092 L
3087 4036 3088 4049 L
3734 3972 3735 3984 L
4378 3891 4380 3903 L
5020 3798 5022 3810 L
5661 3696 5663 3709 L
6300 3590 6302 3602 L
6939 3480 6941 3493 L
7576 3370 7578 3382 L
8214 3259 8224 3266 L
2 setlinewidth
0.000 0.000 0.000 C
showpage
